1,4.237331189,-5.607146512,1.218838
2,4.279638567,-5.613029893,1.126246
3,4.317133227,-5.621493913,1.03409
4,4.34990091,-5.632265107,0.942223
5,4.37788728,-5.645456517,0.850762
6,4.40106941,-5.661336273,0.759919
7,4.419533089,-5.679958267,0.669718
8,4.433349102,-5.701391264,0.580206
9,4.442570845,-5.72569769,0.491469
10,4.447240893,-5.752911678,0.403624
11,4.447396542,-5.783017527,0.316804
12,4.44306785,-5.815931635,0.231166
13,4.434282076,-5.85148511,0.14687
14,4.421066085,-5.889408919,0.064057
15,4.403443035,-5.929324904,-0.017153
16,4.381434829,-5.970737997,-0.096683
17,4.355039116,-6.013051867,-0.174577
18,4.324317717,-6.055501778,-0.250807
19,4.29134494,-6.096424423,-0.326817
20,4.258312359,-6.134024152,-0.404095
21,4.225360653,-6.167272354,-0.482871
22,4.19259099,-6.195103298,-0.563356
23,4.160066784,-6.216424707,-0.645753
24,4.127817452,-6.230127681,-0.73023
25,4.095842056,-6.235094961,-0.816932
26,4.064124414,-6.230215956,-0.905971
27,4.032629495,-6.214386761,-0.997415
28,4.001296511,-6.186505579,-1.091299
29,3.970057053,-6.14548193,-1.187616
30,3.938845945,-6.09023885,-1.286307
31,3.911716051,-6.032760271,-1.381646
32,3.892451381,-5.985367132,-1.468451
33,3.880558961,-5.947479467,-1.547402
34,3.875917189,-5.918355597,-1.618285
35,3.878362578,-5.897278579,-1.680808
36,3.887283772,-5.883670986,-1.735498
37,3.90204,-5.876934228,-1.782869
38,3.921965616,-5.876449825,-1.823438
39,3.946375854,-5.881581664,-1.85772
40,3.974571066,-5.891676931,-1.886237
41,4.005840365,-5.906066703,-1.909533
42,4.039466012,-5.92406777,-1.928163
43,4.074960421,-5.945241701,-1.942461
44,4.111781784,-5.969110716,-1.952807
45,4.14913132,-5.994899524,-1.959867
46,4.186217685,-6.021805241,-1.96436
47,4.222259987,-6.049000908,-1.967057
48,4.256489865,-6.075639954,-1.968766
49,4.288153743,-6.10086018,-1.970335
50,4.316513106,-6.123786224,-1.972648
51,4.340844677,-6.143534109,-1.976609
52,4.360438348,-6.159212517,-1.983143
53,4.374595712,-6.169925207,-1.993188
54,4.382625852,-6.174773114,-2.007682
55,4.38384066,-6.172854624,-2.027557
56,4.377549728,-6.16326619,-2.053739
57,4.363052317,-6.145102483,-2.087125
58,4.339630155,-6.11745586,-2.128584
59,4.306538805,-6.079415182,-2.178949
60,4.262996296,-6.030064275,-2.239001
61,4.22011874,-5.976299978,-2.3011
62,4.189006234,-5.925482422,-2.357467
63,4.168814046,-5.877384221,-2.408606
64,4.158692439,-5.831774374,-2.455019
65,4.157786275,-5.788414293,-2.497208
66,4.165235118,-5.747055865,-2.535675
67,4.179796394,-5.707317334,-2.571102
68,4.200244914,-5.668879861,-2.604134
69,4.225744149,-5.631577533,-2.635213
70,4.25546586,-5.595243447,-2.664786
71,4.288597834,-5.559712951,-2.693304
72,4.324353702,-5.524830424,-2.721206
73,4.361954662,-5.490446148,-2.748995
74,4.400722933,-5.456439465,-2.776952
75,4.439553468,-5.422879192,-2.805776
76,4.477483397,-5.389806671,-2.836078
77,4.514057657,-5.357079849,-2.868163
78,4.5488828,-5.324597116,-2.902255
79,4.581627766,-5.292303633,-2.93849
80,4.612038666,-5.260214848,-2.976876
81,4.639939082,-5.228424458,-3.01729
82,4.665235146,-5.197127178,-3.059445
83,4.687916917,-5.166640118,-3.102863
84,4.708037329,-5.137402877,-3.146901
85,4.725679651,-5.109975589,-3.190781
86,4.740899271,-5.08501038,-3.23366
87,4.752613506,-5.062178617,-3.276069
88,4.759065942,-5.04064007,-3.319324
89,4.75914022,-5.020251946,-3.363921
90,4.751622313,-5.000795705,-3.4105
91,4.742063926,-4.983466214,-3.455776
92,4.736512919,-4.969485926,-3.496348
93,4.734456083,-4.958584252,-3.532789
94,4.735411155,-4.950451343,-3.56567
95,4.738937264,-4.944756495,-3.595529
96,4.744643165,-4.941157972,-3.622869
97,4.75218812,-4.939314515,-3.64814
98,4.761278888,-4.938893828,-3.671738
99,4.771668499,-4.939573219,-3.694011
100,4.78315026,-4.941044341,-3.715261
101,4.795551469,-4.943015363,-3.735742
102,4.808730139,-4.945207777,-3.755677
103,4.823186517,-4.946956503,-3.775264
104,4.839307235,-4.947706402,-3.794671
105,4.856803108,-4.947357825,-3.814046
106,4.875383586,-4.945819623,-3.833522
107,4.888266112,-4.938489312,-3.857709
108,4.900358413,-4.928552322,-3.883099
109,4.911284161,-4.915801385,-3.909844
110,4.920598582,-4.900038309,-3.938098
111,4.927784233,-4.881080408,-3.968029
112,4.932245296,-4.858776187,-3.999807
113,4.933301941,-4.833020083,-4.033597
114,4.93018808,-4.803756242,-4.06957
115,4.922047725,-4.770988341,-4.107901
116,4.907932362,-4.734783885,-4.148771
117,4.8867977,-4.695259911,-4.192394
118,4.857490073,-4.652562967,-4.239049
119,4.818716756,-4.606827233,-4.28913
120,4.768974114,-4.558087622,-4.343266
121,4.709234779,-4.50314053,-4.403355
122,4.639623462,-4.438783965,-4.47204
123,4.56192091,-4.36827283,-4.543929
124,4.480790983,-4.295830981,-4.611775
125,4.395520585,-4.221734923,-4.676957
126,4.303211141,-4.145440702,-4.742601
127,4.187682983,-4.06121984,-4.822812
128,4.099034057,-3.991035223,-4.871762
129,4.094101177,-3.953914396,-4.850436
130,4.093105697,-3.916145432,-4.829788
131,4.096235731,-3.877915749,-4.810066
132,4.277565723,-3.87760834,-4.661749
133,4.390856074,-3.847387049,-4.572241
134,4.501471307,-3.805906101,-4.492572
135,4.614302512,-3.7545784,-4.41912
136,4.730228566,-3.694056412,-4.351089
137,4.849090776,-3.625319227,-4.288079
138,4.970078093,-3.550158195,-4.229639
139,5.092442404,-3.471469981,-4.174581
140,5.215348254,-3.393465531,-4.121049
141,5.334660508,-3.319792,-4.068109
142,5.446963567,-3.253709012,-4.01455
143,5.552573663,-3.199517548,-3.957745
144,5.651310111,-3.156930099,-3.898734
145,5.74358244,-3.124229813,-3.83875
146,5.830000347,-3.102763481,-3.776498
147,5.91107371,-3.093452497,-3.710897
148,5.987029686,-3.096951757,-3.641249
149,6.057945072,-3.113700625,-3.567065
150,6.123812194,-3.143996631,-3.487955
151,6.186285714,-3.177859354,-3.4057
152,6.247200016,-3.205246503,-3.322059
153,6.306734157,-3.22632621,-3.236616
154,6.365007381,-3.241315798,-3.148919
155,6.422070689,-3.250484932,-3.058495
156,6.477926414,-3.254146815,-2.964817
157,6.532514262,-3.25265824,-2.867325
158,6.585699461,-3.246414901,-2.765456
159,6.637289262,-3.235839829,-2.658606
160,6.687018806,-3.221380826,-2.54616
161,6.734540506,-3.203506036,-2.42752
162,6.779454412,-3.182680848,-2.302024
163,6.821224691,-3.159422372,-2.169154
164,6.865514313,-3.130235638,-2.00379
165,6.911977989,-3.092197356,-1.789427
166,6.952112354,-3.046260818,-1.537897
167,6.979378248,-2.993065928,-1.260369
168,6.989493768,-2.933207757,-0.967331
169,6.980449271,-2.867615065,-0.669079
170,6.952534117,-2.797774884,-0.375723
171,6.908334918,-2.726089267,-0.097585
172,6.852713698,-2.65598912,0.154924
173,6.792603177,-2.591948887,0.371397
174,6.728914138,-2.529427927,0.567186
175,6.657357411,-2.461720297,0.762576
176,6.578855784,-2.390989707,0.95442
177,6.494874439,-2.319518765,1.139805
178,6.407088836,-2.249300278,1.316726
179,6.31742513,-2.181982182,1.483699
180,6.228516418,-2.119110106,1.638858
181,6.139361367,-2.055230674,1.777433
182,6.048635026,-1.985459049,1.896469
183,5.959403637,-1.912338646,1.996069
184,5.874283015,-1.838035467,2.076881
185,5.795331438,-1.764283187,2.140013
186,5.723992715,-1.692360628,2.186938
187,5.661085578,-1.623073776,2.219423
188,5.606975548,-1.556881079,2.239321
189,5.561585756,-1.493866688,2.248609
190,5.524541912,-1.433810197,2.249307
191,5.49528405,-1.376226032,2.243441
192,5.473158489,-1.320381326,2.233047
193,5.45769613,-1.265297177,2.22027
194,5.448394828,-1.209753266,2.207144
195,5.444728072,-1.152379483,2.195318
196,5.446391983,-1.091620295,2.186196
197,5.453356923,-1.025780094,2.180801
198,5.465970312,-0.9531954743,2.179546
199,5.484982589,-0.8724620935,2.182081
200,5.527172421,-0.8121540304,2.168925
201,5.575850294,-0.7535467914,2.154055
202,5.628173171,-0.6961481244,2.134426
203,5.683826215,-0.6431606875,2.110106
204,5.742123393,-0.5974925767,2.081778
205,5.802065038,-0.5615452004,2.050645
206,5.86244593,-0.5370385756,2.018248
207,5.921984741,-0.5249250909,1.986244
208,5.979439274,-0.525404059,1.95618
209,6.033713709,-0.5380141467,1.929309
210,6.083933052,-0.5617856922,1.906476
211,6.129472179,-0.5954093672,1.888068
212,6.169966493,-0.6373974798,1.874039
213,6.205298256,-0.6862218702,1.863963
214,6.235560576,-0.740407397,1.857136
215,6.261022248,-0.7986002075,1.852661
216,6.28208677,-0.8596112776,1.849549
217,6.299161918,-0.9224248649,1.846918
218,6.312680885,-0.9862067891,1.843976
219,6.32287849,-1.051439488,1.840134
220,6.329611531,-1.118961394,1.835263
221,6.332798744,-1.188649323,1.829324
222,6.332344967,-1.260403162,1.822358
223,6.328148129,-1.334125335,1.814468
224,6.320106259,-1.409716612,1.805817
225,6.30812195,-1.487074456,1.796611
226,6.292107855,-1.566076986,1.7871
227,6.271989949,-1.646583454,1.77756
228,6.24770808,-1.728436283,1.768294
229,6.219220005,-1.811447044,1.759624
230,6.186500589,-1.895399417,1.751881
231,6.149428175,-1.989516073,1.742795
232,6.10815365,-2.10142417,1.729985
233,6.063143301,-2.228357117,1.713643
234,6.014741887,-2.36770292,1.694105
235,5.9633676,-2.516850429,1.671731
236,5.90950309,-2.673248782,1.646916
237,5.853695138,-2.834427057,1.620097
238,5.79656119,-2.997978378,1.591765
239,5.738780907,-3.161573774,1.562475
240,5.681083778,-3.322974715,1.532846
241,5.624348048,-3.480226484,1.503259
242,5.56914537,-3.63191593,1.474122
243,5.515761742,-3.776728778,1.446165
244,5.464471026,-3.913394434,1.420139
245,5.41554005,-4.040673522,1.396801
246,5.369233362,-4.157340835,1.376905
247,5.32455018,-4.261961301,1.359808
248,5.280898487,-4.352976222,1.345101
249,5.239092413,-4.428924987,1.333828
250,5.203105714,-4.4905242,1.32543
251,5.175565498,-4.540500922,1.318589
252,5.155193355,-4.580283545,1.313129
253,5.140708617,-4.6112147,1.308851
254,5.130838047,-4.634577257,1.305553
255,5.124323806,-4.651613935,1.303038
256,5.119929146,-4.663540306,1.301129
257,5.11645933,-4.671525304,1.299693
258,5.1126764,-4.676843934,1.29858
259,5.107422018,-4.680669362,1.297735
260,5.09952515,-4.684225126,1.297131
261,5.090640067,-4.684348212,1.299203
262,5.081558995,-4.679394562,1.305801
263,5.069776088,-4.672878376,1.315985
264,5.052757183,-4.668294822,1.328751
265,5.027963173,-4.669091609,1.343035
266,4.997166832,-4.674978069,1.361636
267,4.963149771,-4.68433492,1.386723
268,4.924954528,-4.698454697,1.416216
269,4.881725549,-4.718490576,1.447979
270,4.834088602,-4.743137697,1.481632
271,4.783219362,-4.770229561,1.51761
272,4.729203637,-4.799533018,1.554996
273,4.672180152,-4.830829621,1.592921
274,4.612351727,-4.863914178,1.630563
275,4.549982591,-4.898598572,1.667165
276,4.485391702,-4.934715614,1.702037
277,4.418956548,-4.972114702,1.734556
278,4.351101862,-5.010663569,1.764178
279,4.282285432,-5.050249506,1.790435
280,4.213030387,-5.090795194,1.812962
281,4.144452003,-5.132629361,1.831844
282,4.077200897,-5.175736729,1.846855
283,4.012201609,-5.21982449,1.857385
284,3.950304448,-5.264611011,1.862989
285,3.89181857,-5.309909493,1.863581
286,3.837062349,-5.355524191,1.85911
287,3.786352062,-5.401253592,1.849562
288,3.739992461,-5.446893862,1.834952
289,3.698277897,-5.492232935,1.815324
290,3.661483072,-5.537054147,1.790736
291,3.629856338,-5.581139811,1.76126
292,3.603620722,-5.624265632,1.726972
293,3.582967401,-5.666204504,1.68794
294,3.568051868,-5.706729956,1.644216
295,3.558994127,-5.745611086,1.595827
296,3.555874128,-5.782616369,1.542763
297,3.558729426,-5.817516855,1.484965
298,3.567552343,-5.850081989,1.422316
299,3.582284949,-5.880083442,1.354631
300,3.602815083,-5.907298136,1.28164
